Assignment 3
…
Tuning Metrics

Tuning metrics - Table

rf_tuning_results_table <- rf_tuning_results %>%
  collect_metrics()%>%
  mutate_if(is.numeric, round, 3)%>%
  select(.metric, trees, min_n, mean, std_err) %>%
  arrange(desc(mean))

rf_tuning_results_table %>%
  filter(.metric == "roc_auc")

## # A tibble: 25 x 5
##    .metric trees min_n  mean std_err
##    <chr>   <dbl> <dbl> <dbl>   <dbl>
##  1 roc_auc    20    11 0.969   0.002
##  2 roc_auc    20    30 0.965   0.004
##  3 roc_auc    20    40 0.964   0.002
##  4 roc_auc    16    11 0.962   0.004
##  5 roc_auc    16    30 0.962   0.002
##  6 roc_auc    12    21 0.961   0.004
##  7 roc_auc    16    21 0.961   0.004
##  8 roc_auc    16    40 0.961   0.003
##  9 roc_auc    20    21 0.961   0.003
## 10 roc_auc    12    40 0.959   0.002
## # ... with 15 more rows
…
xgboost_fit <- fit(xgboost_model, train)

## [20:40:58] WARNING: amalgamation/../src/learner.cc:1095: Starting in XGBoost 1.3.0, the default evaluation metric used with the objective 'binary:logistic' was changed from 'error' to 'logloss'. Explicitly set eval_metric if you'd like to restore the old behavior.

Tuning metrics Scores - Table

xgboost_tuning_results %>%
  collect_metrics() %>%
  mutate_if(is.numeric, round, 3) %>%
  select(.metric, tree_depth, learn_rate, mean, std_err) %>%
  filter(.metric == "roc_auc") %>%
  arrange(desc(mean))

## # A tibble: 25 x 5
##    .metric tree_depth learn_rate  mean std_err
##    <chr>        <dbl>      <dbl> <dbl>   <dbl>
##  1 roc_auc         11      0.1   0.911   0.006
##  2 roc_auc         15      0.1   0.911   0.007
##  3 roc_auc          8      0.1   0.91    0.006
##  4 roc_auc          4      0.1   0.89    0.004
##  5 roc_auc         15      0     0.884   0.009
##  6 roc_auc         11      0.001 0.884   0.011
##  7 roc_auc         15      0.001 0.884   0.01 
##  8 roc_auc          8      0     0.883   0.01 
##  9 roc_auc         11      0     0.883   0.01 
## 10 roc_auc          8      0.001 0.883   0.011
## # ... with 15 more rows
…
